{
  "project_info": {
    "project_number": "959892194149",
    "firebase_url": "https://filmoteca-200911.firebaseio.com",
    "project_id": "filmoteca-200911",
    "storage_bucket": "filmoteca-200911.appspot.com"
  },
  "client": [
    {
      "client_info": {
        "mobilesdk_app_id": "1:959892194149:android:4f48b6c13e32a71a",
        "android_client_info": {
          "package_name": "filmoteca.eps.ua.es.filmoteca"
        }
      },
      "oauth_client": [
        {
          "client_id": "959892194149-jsnpqrjh6sii1e2mht9iffpkihclkilb.apps.googleusercontent.com",
          "client_type": 3
        },
        {
          "client_id": "959892194149-gqq1tbdgclkamcdgli7sv98v0ch2ruhs.apps.googleusercontent.com",
          "client_type": 1,
          "android_info": {
            "package_name": "filmoteca.eps.ua.es.filmoteca",
            "certificate_hash": "c172e65e9055f887fc6666d6ad70b0f8f037d2e8"
          }
        }
      ],
      "api_key": [
        {
          "current_key": "AIzaSyCoZbOMvn_zzz0SAigNYvE1pu9WKhiKa24"
        }
      ],
      "services": {
        "analytics_service": {
          "status": 1
        },
        "appinvite_service": {
          "status": 2,
          "other_platform_oauth_client": [
            {
              "client_id": "959892194149-jsnpqrjh6sii1e2mht9iffpkihclkilb.apps.googleusercontent.com",
              "client_type": 3
            }
          ]
        },
        "ads_service": {
          "status": 2
        }
      }
    }
  ],
  "configuration_version": "1"
}